﻿{
  "dependencies": {
    "Microsoft.ApplicationInsights": "1.0.0",
    "Microsoft.ApplicationInsights.PersistenceChannel": "1.0.0",
    "Microsoft.ApplicationInsights.WindowsApps": "1.0.0",
    "Microsoft.NETCore.UniversalWindowsPlatform": "5.0.0",
    "Prism.Unity.Forms": "6.2.0-pre4",
    "Xamarin.Forms": "2.2.0.4-pre1"
  },
  "frameworks": {
    "uap10.0": {}
  },
  "runtimes": {
    "win10-arm": {},
    "win10-arm-aot": {},
    "win10-x86": {},
    "win10-x86-aot": {},
    "win10-x64": {},
    "win10-x64-aot": {}
  }
}